Combined Analyis
…
## $forecasts
## # A tibble: 2 x 5
##   Model         Time     f     ll    ul
##   <chr>        <int> <dbl>  <dbl> <dbl>
## 1 AIC Both - R   150  3.77 -0.296  7.83
## 2 AIC Both - R   151  2.50 -1.87   6.88
## 
## $plot_data
## # A tibble: 151 x 5
##    Model         Time     f     ll    ul
##    <chr>        <int> <dbl>  <dbl> <dbl>
##  1 AIC Both - R   150  3.77 -0.296  7.83
##  2 AIC Both - R   151  2.50 -1.87   6.88
##  3 Actual           1 -0.8  -0.8   -0.8 
##  4 Actual           2  7.2   7.2    7.2 
##  5 Actual           3  4.2   4.2    4.2 
##  6 Actual           4  4.4   4.4    4.4 
##  7 Actual           5  8.6   8.6    8.6 
##  8 Actual           6 12.7  12.7   12.7 
##  9 Actual           7 12.9  12.9   12.9 
## 10 Actual           8 11.9  11.9   11.9 
## # ... with 141 more rows
…
Forecasts

Batch Forecasts

forecasts = mdl_combine$get_tabular_metrics(ases = FALSE)
forecasts

## # A tibble: 696 x 5
##    Model  Time     f    ll    ul
##    <chr> <dbl> <dbl> <dbl> <dbl>
##  1 AR(2)     1    NA    NA    NA
##  2 AR(2)     2    NA    NA    NA
##  3 AR(2)     3    NA    NA    NA
##  4 AR(2)     4    NA    NA    NA
##  5 AR(2)     5    NA    NA    NA
##  6 AR(2)     6    NA    NA    NA
##  7 AR(2)     7    NA    NA    NA
##  8 AR(2)     8    NA    NA    NA
##  9 AR(2)     9    NA    NA    NA
## 10 AR(2)    10    NA    NA    NA
## # ... with 686 more rows
…
