…
### ASE values across Batches

``` r
ASEs = mdl_compare$get_tabular_metrics(ases = TRUE)
print(ASEs)
```

    ## # A tibble: 146 x 5
    ##    Model        ASE Time_Test_Start Time_Test_End Batch
    ##    <chr>      <dbl>           <dbl>         <dbl> <dbl>
    ##  1 ARMA(2,1) 10.4                49            50     1
    ##  2 ARMA(2,1)  8.41               51            52     2
    ##  3 ARMA(2,1)  3.38               53            54     3
    ##  4 ARMA(2,1)  9.24               55            56     4
    ##  5 ARMA(2,1)  4.28               57            58     5
    ##  6 ARMA(2,1)  6.57               59            60     6
    ##  7 ARMA(2,1) 15.1                61            62     7
    ##  8 ARMA(2,1)  6.68               63            64     8
    ##  9 ARMA(2,1)  0.689              65            66     9
    ## 10 ARMA(2,1)  4.69               67            68    10
    ## # ... with 136 more rows
…
``` r
forecasts = mdl_compare$get_tabular_metrics(ases = FALSE)
print(forecasts)
```

    ## # A tibble: 585 x 5
    ##    Model      Time     f    ll    ul
    ##    <chr>     <dbl> <dbl> <dbl> <dbl>
    ##  1 ARMA(2,1)     1    NA    NA    NA
    ##  2 ARMA(2,1)     2    NA    NA    NA
    ##  3 ARMA(2,1)     3    NA    NA    NA
    ##  4 ARMA(2,1)     4    NA    NA    NA
    ##  5 ARMA(2,1)     5    NA    NA    NA
    ##  6 ARMA(2,1)     6    NA    NA    NA
    ##  7 ARMA(2,1)     7    NA    NA    NA
    ##  8 ARMA(2,1)     8    NA    NA    NA
    ##  9 ARMA(2,1)     9    NA    NA    NA
    ## 10 ARMA(2,1)    10    NA    NA    NA
    ## # ... with 575 more rows
…
### ASE values across Batches

``` r
ASEs = mdl_compare$get_tabular_metrics(ases = TRUE)
print(ASEs)
```

    ## # A tibble: 146 x 5
    ##    Model         ASE Time_Test_Start Time_Test_End Batch
    ##    <chr>       <dbl>           <dbl>         <dbl> <dbl>
    ##  1 ARMA(13,1)  4.35               49            50     1
    ##  2 ARMA(13,1)  2.60               51            52     2
    ##  3 ARMA(13,1)  7.58               53            54     3
    ##  4 ARMA(13,1)  7.93               55            56     4
    ##  5 ARMA(13,1)  1.62               57            58     5
    ##  6 ARMA(13,1) 12.4                59            60     6
    ##  7 ARMA(13,1) 13.7                61            62     7
    ##  8 ARMA(13,1)  4.75               63            64     8
    ##  9 ARMA(13,1)  0.609              65            66     9
    ## 10 ARMA(13,1)  1.64               67            68    10
    ## # ... with 136 more rows
…
``` r
forecasts = mdl_compare$get_tabular_metrics(ases = FALSE)
print(forecasts)
```

    ## # A tibble: 585 x 5
    ##    Model       Time     f    ll    ul
    ##    <chr>      <dbl> <dbl> <dbl> <dbl>
    ##  1 ARMA(13,1)     1    NA    NA    NA
    ##  2 ARMA(13,1)     2    NA    NA    NA
    ##  3 ARMA(13,1)     3    NA    NA    NA
    ##  4 ARMA(13,1)     4    NA    NA    NA
    ##  5 ARMA(13,1)     5    NA    NA    NA
    ##  6 ARMA(13,1)     6    NA    NA    NA
    ##  7 ARMA(13,1)     7    NA    NA    NA
    ##  8 ARMA(13,1)     8    NA    NA    NA
    ##  9 ARMA(13,1)     9    NA    NA    NA
    ## 10 ARMA(13,1)    10    NA    NA    NA
    ## # ... with 575 more rows
…
