…
``` r
forecasts = mdl_compare$get_tabular_metrics(ases = FALSE)
print(forecasts)
```

    ## # A tibble: 1,008 x 5
    ##    Model                  Time     f    ll    ul
    ##    <chr>                 <dbl> <dbl> <dbl> <dbl>
    ##  1 Woodward Gray Model A     1    NA    NA    NA
    ##  2 Woodward Gray Model A     2    NA    NA    NA
    ##  3 Woodward Gray Model A     3    NA    NA    NA
    ##  4 Woodward Gray Model A     4    NA    NA    NA
    ##  5 Woodward Gray Model A     5    NA    NA    NA
    ##  6 Woodward Gray Model A     6    NA    NA    NA
    ##  7 Woodward Gray Model A     7    NA    NA    NA
    ##  8 Woodward Gray Model A     8    NA    NA    NA
    ##  9 Woodward Gray Model A     9    NA    NA    NA
    ## 10 Woodward Gray Model A    10    NA    NA    NA
    ## # ... with 998 more rows
