…
``` r
mdl_build$summarize_build()
```

    ## # A tibble: 32 x 9
    ##    Model   Selection Trend Season     K SigVar    OriginalVar    Lag MaxLag
    ##    <chr>   <chr>     <chr>  <dbl> <dbl> <chr>     <chr>        <dbl>  <dbl>
    ##  1 VARS A… aic       const      0    12 gdp_chan… gdp_change      -1    -11
    ##  2 VARS A… aic       const      0    12 housingp… housingperm…    -1    -11
    ##  3 VARS A… aic       const      0    12 fedintra… fedintrate      -1     -7
    ##  4 VARS A… aic       const      0    12 nfjobsch… nfjobschg       -1     -7
    ##  5 VARS A… aic       const      0    12 treas10y… treas10yr       -1     -1
    ##  6 VARS A… aic       const      0    12 personin… personincom…    -2    -10
    ##  7 VARS A… aic       const      0    12 housingp… housingperm…    -2    -11
    ##  8 VARS A… aic       const      0    12 fedintra… fedintrate      -2     -7
    ##  9 VARS A… aic       const      0    12 corpprof… corpprofitc…    -2     -8
    ## 10 VARS A… aic       const      0    12 personin… personincom…    -4    -10
    ## # … with 22 more rows
…
``` r
mdl_build$summarize_build()
```

    ## # A tibble: 35 x 9
    ##    Model   Selection Trend Season     K SigVar    OriginalVar    Lag MaxLag
    ##    <chr>   <chr>     <chr>  <dbl> <dbl> <chr>     <chr>        <dbl>  <dbl>
    ##  1 VARS A… aic       const      0    11 housingp… housingperm…    -1    -11
    ##  2 VARS A… aic       const      0    11 fedintra… fedintrate      -1    -11
    ##  3 VARS A… aic       const      0    11 nfjobsch… nfjobschg       -1     -7
    ##  4 VARS A… aic       const      0    11 treas10y… treas10yr       -1    -11
    ##  5 VARS A… aic       const      0    11 gdp_chan… gdp_change      -2    -11
    ##  6 VARS A… aic       const      0    11 personin… personincom…    -2     -6
    ##  7 VARS A… aic       const      0    11 housingp… housingperm…    -2    -11
    ##  8 VARS A… aic       const      0    11 fedintra… fedintrate      -2    -11
    ##  9 VARS A… aic       const      0    11 corpprof… corpprofitc…    -3     -8
    ## 10 VARS A… aic       const      0    11 personin… personincom…    -4     -6
    ## # … with 25 more rows
…
    ## # A tibble: 2 x 5
    ##   Model           ASE_mean ASE_median ASE_sd num_batches
    ##   <chr>              <dbl>      <dbl>  <dbl>       <int>
    ## 1 VARS AIC Both B    13.4        6.43  18.6           48
    ## 2 VARS BIC Both B     5.91       3.69   8.37          48

``` r
mdl_compare$get_tabular_metrics(ases = FALSE) %>% 
  na.omit()
```

    ## # A tibble: 387 x 5
    ##    Model            Time     f     ll    ul
    ##    <chr>           <dbl> <dbl>  <dbl> <dbl>
    ##  1 VARS AIC Both B    99 3.81  -1.69   9.31
    ##  2 VARS AIC Both B   100 4.11  -3.26  11.5 
    ##  3 VARS AIC Both B   101 1.63  -3.87   7.12
    ##  4 VARS AIC Both B   102 7.33  -0.114 14.8 
    ##  5 VARS AIC Both B   103 1.82  -3.75   7.39
    ##  6 VARS AIC Both B   104 6.49  -0.908 13.9 
    ##  7 VARS AIC Both B   105 2.41  -3.18   8.00
    ##  8 VARS AIC Both B   106 4.05  -3.23  11.3 
    ##  9 VARS AIC Both B   107 0.152 -5.25   5.55
    ## 10 VARS AIC Both B   108 2.34  -4.83   9.51
    ## # … with 377 more rows
…
