…
``` r
# Only compares models that have sliding_ase calculations, since we need more than 1 result per model
```

``` r
mdl_compare$get_tabular_metrics(ases = TRUE)
```

    ## # A tibble: 25 x 3
    ##    Model             ASE  Time
    ##    <chr>           <dbl> <dbl>
    ##  1 ARMA Model 1A 25.9      133
    ##  2 ARMA Model 1B  1.82      49
    ##  3 ARMA Model 1B  0.449     61
    ##  4 ARMA Model 1B  0.0952    73
    ##  5 ARMA Model 1B  0.635     85
    ##  6 ARMA Model 1B  0.572     97
    ##  7 ARMA Model 1B  0.868    109
    ##  8 ARMA Model 1B  0.125    121
    ##  9 ARMA Model 1B  0.127    133
    ## 10 ARMIA Model 2  0.667     49
    ## # ... with 15 more rows

``` r
mdl_compare$get_tabular_metrics(ases = FALSE)
```

    ## # A tibble: 720 x 5
    ##    Model          Time     f    ll    ul
    ##    <chr>         <dbl> <dbl> <dbl> <dbl>
    ##  1 ARMA Model 1A     1    NA    NA    NA
    ##  2 ARMA Model 1A     2    NA    NA    NA
    ##  3 ARMA Model 1A     3    NA    NA    NA
    ##  4 ARMA Model 1A     4    NA    NA    NA
    ##  5 ARMA Model 1A     5    NA    NA    NA
    ##  6 ARMA Model 1A     6    NA    NA    NA
    ##  7 ARMA Model 1A     7    NA    NA    NA
    ##  8 ARMA Model 1A     8    NA    NA    NA
    ##  9 ARMA Model 1A     9    NA    NA    NA
    ## 10 ARMA Model 1A    10    NA    NA    NA
    ## # ... with 710 more rows
